; Engine configuration file.
; It's best edited using the editor UI and not directly,
; since the parameters that go here are not all obvious.
;
; Format:
;   [section] ; section goes between []
;   param=value ; assign values to parameters

config_version=4

[application]

config/name="Low Poly Demo"
run/main_scene="res://main/main.tscn"
config/icon="res://icon.png"

[editor_plugins]

enabled=PoolStringArray( "res://addons/sketchfab/plugin.cfg" )

[gui]

common/drop_mouse_on_gui_input_disabled=true

[physics]

common/enable_pause_aware_picking=true

[rendering]

quality/shadows/filter_mode=2
quality/shading/use_physical_light_attenuation=true
quality/filters/use_nearest_mipmap_filter=true
quality/subsurface_scattering/quality=2
quality/subsurface_scattering/follow_surface=true
quality/filters/msaa=3
quality/filters/use_debanding=true
environment/default_environment="res://default_env.tres"
